A short presentation about reticulate & disk.frame
…
using srckeep only load selected cols into memory whereas select will load all cols before filtering

We can get summary descriptions by cols

pm25.stats = disk.df %>% 
  group_by(TEMP) %>%
  summarise(avrPM2.5 = mean(pm2.5, na.rm = T),
            medPM2.5 = median(pm2.5, na.rm = T)) %>%
  collect #computation executed

pm25.stats
### # A tibble: 64 x 3
###     TEMP avrPM2.5 medPM2.5
###    <dbl>    <dbl>    <dbl>
###  1   -19     27.5     27.5
###  2   -18     46.8     NA  
###  3   -17     99.4     81.8
###  4   -16    105.      85  
###  5   -15     92.9     65  
###  6   -14     83.7     56.8
###  7   -13     73.4     66  
###  8   -12     80.5     60  
###  9   -11     76.4     43  
### 10   -10     82.8     48  
### #  with 54 more rows
…
